<svg width="1600" height="470" viewBox="0 0 1600 470" fill="none" xmlns="http://www.w3.org/2000/svg">
<g clip-path="url(#clip0_230_356)">
<g clip-path="url(#clip1_230_356)">
<path d="M277 252C277 252 282.85 278.32 292.37 280.32C301.89 282.32 306 275.4 299 254.69" fill="#DEAD86"/>
<path d="M277 252C277 252 282.85 278.32 292.37 280.32C301.89 282.32 306 275.4 299 254.69" stroke="#1D1D1B" stroke-width="3" stroke-miterlimit="10" stroke-linecap="round"/>
<path d="M227.48 252C227.48 252 233.33 278.32 242.86 280.32C252.39 282.32 256.55 275.4 249.51 254.69" fill="#DEAD86"/>
<path d="M227.48 252C227.48 252 233.33 278.32 242.86 280.32C252.39 282.32 256.55 275.4 249.51 254.69" stroke="#1D1D1B" stroke-width="3" stroke-miterlimit="10" stroke-linecap="round"/>
<path d="M1038.52 433.4C1033.96 430.78 1024.52 423.7 1014.59 416.3C1009.02 412.13 1002.69 407.4 995.9 402.43C969.43 383.07 949.46 344.61 937.36 315.75C931.937 302.814 922.829 291.759 911.17 283.96C899.511 276.162 885.816 271.964 871.79 271.89C859.44 271.8 846.96 271.76 834.7 271.76C772.19 271.76 709.15 272.96 647.32 275.34C639.18 275.65 622.42 275.81 597.54 275.81C435.23 275.81 -32.88 269.07 -60.59 268.67L-64.74 259.84C-45.28 261.12 58.93 267.18 289.67 267.18C359.67 267.18 435.72 266.63 515.67 265.53C552.91 265.01 589.67 264.17 624.85 263.01C645.718 262.427 666.288 257.898 685.47 249.66C700.93 242.96 713.8 234.56 723.72 224.66C729.38 219.04 733.72 214.73 736.97 211.44C741.28 207.13 744.08 204.34 745.58 202.91C746.018 203.156 746.508 203.297 747.01 203.32C743.663 209.132 740.893 215.258 738.74 221.61C737.814 224.414 737.122 227.291 736.67 230.21C735.18 238.35 733.9 245.37 720.83 252.96C720.45 253.18 720.153 253.52 719.985 253.926C719.817 254.333 719.788 254.783 719.902 255.208C720.016 255.632 720.266 256.008 720.615 256.275C720.963 256.543 721.39 256.689 721.83 256.69H721.93C845.1 250.85 925.3 243.46 1002.86 236.32C1031.86 233.65 1061.86 230.89 1093.24 228.32C1117.69 226.274 1140.78 216.236 1158.95 199.756C1177.13 183.276 1189.37 161.271 1193.79 137.14C1193.88 136.65 1193.96 136.14 1194.05 135.66C1206.72 63.3197 1223.77 46.4097 1232.82 40.6597C1225.43 53.7697 1205.82 89.8797 1209.6 134.57C1209.67 135.4 1209.73 136.22 1209.78 137.05C1212.36 183.05 1249.99 219.12 1295.45 219.12H1295.77H1304.77C1321.67 219.12 1339.11 219.3 1356.64 219.65C1377.11 220.06 1397.51 220.26 1417.3 220.26C1684.78 220.26 1831.36 183.86 1875.62 152.69C1884.62 146.32 1894.48 138.6 1904.87 130.43C1950.75 94.3597 2013.51 45.0097 2104.87 36.7197C2116.77 51.7197 2280.57 259.16 2253.87 314.78C2249.59 323.7 2240.61 328.03 2226.42 328.03C2214.1 328.03 2197.95 324.61 2178.42 317.87C2102.88 291.87 2037.94 280.22 1967.86 280.22C1924.3 280.22 1882.39 284.42 1833.86 289.28C1773.25 295.36 1704.55 302.28 1615.5 302.28C1612.74 302.28 1609.94 302.28 1607.15 302.28C1506.88 301.8 1403.23 295.58 1293.49 288.98C1204.8 283.66 1113.1 278.15 1012.22 274.83C1011.76 274.83 1011.31 274.83 1010.86 274.83C1004.97 274.835 999.16 276.135 993.833 278.638C988.506 281.142 983.794 284.788 980.034 289.316C976.274 293.845 973.556 299.146 972.074 304.843C970.593 310.54 970.383 316.493 971.46 322.28C975.63 344.72 987.01 367.52 1005.29 390.07C1014.24 401 1033.76 425.11 1038.52 433.4ZM2031.07 120.56C2007.24 120.56 2002.07 128.91 1994.25 141.56C1986.81 153.56 1976.61 170.08 1944.73 189.25C1873.25 232.25 1549.82 250.61 1546.56 250.79C1546.03 250.79 1545.52 251 1545.15 251.376C1544.77 251.751 1544.56 252.259 1544.56 252.79C1544.56 253.32 1544.77 253.829 1545.15 254.204C1545.52 254.579 1546.03 254.79 1546.56 254.79C1546.98 254.79 1589.12 258.17 1652.47 258.17C1722.36 258.17 1827.7 254.05 1932.65 234.43C1951.36 231.075 1970.35 229.445 1989.36 229.56C2044.85 229.56 2098.67 241.4 2134.28 249.23C2151.21 252.96 2163.43 255.65 2169.6 255.65C2172.16 255.65 2173.74 255.2 2174.72 254.19C2178.95 249.8 2179.06 241.69 2175.05 230.73C2167.97 211.36 2149 185.3 2126.73 164.33C2100 139.21 2072 124 2047.81 121.54C2042.25 120.931 2036.66 120.604 2031.07 120.56Z" fill="#929967"/>
<path d="M2102 38.8103C2109.72 48.5303 2149.55 99.2003 2186.08 155.15C2209.78 191.44 2227.45 222.8 2238.62 248.36C2252.2 279.44 2256.07 301.49 2250.13 313.9C2246.22 322.07 2237.82 326.03 2224.46 326.03C2212.38 326.03 2196.46 322.65 2177.08 316.03C2101.32 289.92 2036.19 278.27 1965.87 278.27C1922.21 278.27 1880.26 282.48 1831.68 287.34C1771.11 293.41 1702.46 300.29 1613.51 300.29C1610.75 300.29 1607.96 300.29 1605.17 300.29C1504.96 299.81 1401.34 293.59 1291.63 287C1202.93 281.67 1111.2 276.16 1010.3 272.84C1009.82 272.84 1009.3 272.84 1008.87 272.84C1002.69 272.844 996.588 274.209 990.995 276.837C985.402 279.465 980.456 283.291 976.509 288.046C972.561 292.8 969.708 298.365 968.153 304.345C966.598 310.326 966.378 316.575 967.51 322.65C971.74 345.42 983.26 368.53 1001.75 391.34C1007.33 398.24 1020.83 414.89 1029.01 426.03C1024.52 422.81 1019.11 418.76 1013.79 414.79C1008.21 410.61 1001.88 405.88 995.08 400.9C968.99 381.82 949.21 343.69 937.21 315.06C931.63 301.768 922.266 290.408 910.283 282.393C898.3 274.378 884.226 270.062 869.81 269.98C857.47 269.89 844.99 269.85 832.73 269.85C770.18 269.85 707.11 271.05 645.25 273.43C637.13 273.74 620.4 273.9 595.53 273.9C435.28 273.9 -23.13 267.33 -61.31 266.78L-63.49 262.14C-37.1 263.78 67.94 269.27 287.66 269.27C357.66 269.27 433.72 268.72 513.71 267.62C551 267.1 587.71 266.26 622.94 265.1C644.056 264.506 664.869 259.922 684.28 251.59C699.97 244.78 713.05 236.24 723.15 226.2C728.81 220.57 733.15 216.26 736.41 212.97L739.32 210.06C737.96 212.99 736.44 216.61 734.87 221.06C733.912 223.967 733.193 226.947 732.72 229.97C731.32 237.62 730.12 244.22 717.84 251.35C717.079 251.791 716.485 252.471 716.15 253.284C715.814 254.096 715.756 254.997 715.984 255.846C716.211 256.695 716.712 257.446 717.409 257.982C718.107 258.518 718.961 258.809 719.84 258.81H720C843.22 252.98 923.44 245.59 1001 238.44C1030 235.77 1060 233.01 1091.35 230.44C1116.24 228.361 1139.74 218.145 1158.24 201.37C1176.74 184.595 1189.2 162.195 1193.7 137.63L1193.97 136.13C1200.12 101.04 1208.05 74.9903 1217.55 58.7003C1219.33 55.5972 1221.36 52.647 1223.63 49.8803C1214.83 67.3603 1202.45 98.2503 1205.56 134.88C1205.63 135.69 1205.69 136.5 1205.73 137.3C1206.98 159.848 1216.72 181.086 1233 196.74C1249.23 212.427 1270.92 221.178 1293.49 221.14H1293.82H1302.82C1319.74 221.14 1337.18 221.32 1354.65 221.67C1375.14 222.08 1395.56 222.28 1415.35 222.28C1533.77 222.28 1640.85 214.81 1725 200.66C1796.19 188.66 1849.4 172.25 1874.82 154.34C1883.9 147.94 1893.74 140.21 1904.15 132.02C1927.81 113.42 1954.62 92.3503 1987.46 74.5403C2024.86 54.2703 2062.37 42.5403 2102.05 38.8303M1650.42 260.15C1720.42 260.15 1825.86 256.02 1930.97 236.38C1949.56 233.046 1968.42 231.426 1987.31 231.54C2042.58 231.54 2096.31 243.35 2131.8 251.17C2148.8 254.92 2161.17 257.63 2167.55 257.63C2169.67 257.63 2172.33 257.39 2174.1 255.55C2178.97 250.55 2179.23 241.92 2174.88 230.02C2167.7 210.39 2148.53 184.02 2126.05 162.85C2099.05 137.45 2070.66 122.08 2046.05 119.55C2040.42 118.93 2034.76 118.597 2029.1 118.55C2004.16 118.55 1998.47 127.75 1990.58 140.49C1983.24 152.35 1973.19 168.6 1941.73 187.49C1912.49 205.08 1834.63 221.25 1716.57 234.26C1627.03 244.12 1545.3 248.71 1544.48 248.75C1543.42 248.737 1542.4 249.146 1541.64 249.887C1540.88 250.627 1540.44 251.639 1540.43 252.7C1540.42 253.761 1540.83 254.784 1541.57 255.543C1542.31 256.303 1543.32 256.737 1544.38 256.75C1544.8 256.75 1587.02 260.14 1650.45 260.14M2103.78 34.6303C1990.42 44.5003 1921.49 116.52 1872.46 151.05C1826.88 183.16 1675.31 218.26 1415.3 218.26C1395.7 218.26 1375.49 218.057 1354.68 217.65C1336.74 217.29 1319.48 217.12 1302.77 217.12H1293.77H1293.46C1248.6 217.12 1212.3 181.76 1209.78 136.94C1209.78 136.09 1209.68 135.25 1209.61 134.41C1204.79 77.7603 1237.71 35.8003 1235.43 35.8003C1235.25 35.8293 1235.09 35.9053 1234.95 36.0203C1229.37 39.7303 1206.03 44.2603 1190.09 135.3C1190.01 135.8 1189.92 136.3 1189.83 136.77C1185.52 160.48 1173.5 182.106 1155.65 198.295C1137.8 214.485 1115.11 224.336 1091.09 226.32C977.09 235.72 889.78 246.65 719.84 254.7C738.4 243.93 734.72 233.35 738.63 222.28C744.81 204.8 749.95 200.77 748.14 200.77C747.441 200.849 746.752 200.993 746.08 201.2C745.794 201.286 745.498 201.333 745.2 201.34C743.86 201.34 744.45 200.02 744.05 200.02C743.39 200.02 739.99 203.69 720.32 223.25C709.32 234.18 695.84 242.1 682.68 247.81C663.726 255.93 643.411 260.405 622.8 261C588.8 262.12 552.5 263 513.66 263.52C427.59 264.7 352.55 265.17 287.66 265.17C28 265.18 -70 257.61 -70 257.61L-63.87 270.61C-63.87 270.61 427.13 277.77 595.53 277.77C619.44 277.77 636.83 277.63 645.4 277.3C710.96 274.78 773.25 273.72 832.73 273.72C845.203 273.72 857.537 273.764 869.73 273.85C883.36 273.94 896.665 278.026 907.995 285.604C919.325 293.182 928.182 303.917 933.47 316.48C946.05 346.48 966.1 384.57 992.67 404C1017.26 422 1035.16 436.42 1038.83 436.42C1042.29 436.42 1033.06 423.56 1004.83 388.69C984.26 363.31 974.91 340.58 971.42 321.79C970.397 316.293 970.597 310.637 972.005 305.225C973.413 299.813 975.994 294.778 979.567 290.475C983.139 286.173 987.614 282.71 992.675 280.331C997.736 277.952 1003.26 276.716 1008.85 276.71C1009.28 276.71 1009.71 276.71 1010.15 276.71C1238.58 284.23 1425.51 303.3 1605.15 304.16C1607.94 304.16 1610.75 304.16 1613.51 304.16C1772.82 304.16 1867.18 282.16 1965.87 282.16C2028.28 282.16 2092.4 290.96 2175.78 319.7C2196.28 326.77 2212.3 329.97 2224.46 329.97C2341.34 329.97 2103.78 34.5703 2103.78 34.5703V34.6303ZM1650.42 256.15C1586.42 256.15 1544.67 252.78 1544.67 252.78C1544.67 252.78 1871 234.69 1943.77 191C2009.59 151.42 1984.49 122.61 2029.07 122.61C2033.75 122.61 2039.2 122.93 2045.61 123.61C2113.01 130.52 2189.39 234.02 2171.23 252.86C2170.66 253.44 2169.42 253.71 2167.55 253.71C2149.06 253.71 2069.45 227.63 1987.31 227.62C1968.18 227.501 1949.07 229.145 1930.24 232.53C1827.35 251.76 1724.13 256.23 1650.42 256.23V256.15Z" fill="#1D1D1B"/>
<path d="M237.42 269.9C252.31 273.96 261.98 268.9 261.98 268.9L258.22 255.8C259.147 260.254 260.404 264.632 261.98 268.9C264.66 276.08 268.82 283.73 274.56 284.73C285.69 286.66 285.21 266.81 282.67 254.95L284.61 263.43C286.584 263.066 288.524 262.537 290.41 261.85C292.84 260.85 300.22 254.59 300.22 254.59C283.372 251.447 267.808 243.454 255.44 231.59C235.35 211.98 239.22 185.84 239.22 185.84C239.22 185.84 211.87 193.84 206.55 210.77C203.958 218.867 202.987 227.396 203.692 235.869C204.397 244.342 206.765 252.592 210.66 260.15C218.41 275.64 220.1 283.38 227.36 285.56C234.62 287.74 237.77 280.48 237.53 272.01C237.53 271.54 237.53 271.01 237.46 270.56C236.95 262.2 234.14 251.19 234.14 251.19" fill="#DFB18C"/>
<path d="M237.42 269.9C252.31 273.96 261.98 268.9 261.98 268.9M261.98 268.9L258.22 255.8C259.147 260.254 260.404 264.632 261.98 268.9ZM261.98 268.9C264.66 276.08 268.82 283.73 274.56 284.73C285.69 286.66 285.21 266.81 282.67 254.95L284.61 263.43C286.584 263.066 288.524 262.537 290.41 261.85C292.84 260.85 300.22 254.59 300.22 254.59C283.372 251.447 267.808 243.454 255.44 231.59C235.35 211.98 239.22 185.84 239.22 185.84C239.22 185.84 211.87 193.84 206.55 210.77C203.958 218.867 202.987 227.396 203.692 235.869C204.397 244.342 206.765 252.592 210.66 260.15C218.41 275.64 220.1 283.38 227.36 285.56C234.62 287.74 237.77 280.48 237.53 272.01C237.53 271.54 237.53 271.01 237.46 270.56C236.95 262.2 234.14 251.19 234.14 251.19" stroke="#1D1D1B" stroke-width="3" stroke-linecap="round" stroke-linejoin="round"/>
<path d="M330.322 271.944C381.743 271.45 423.045 231.165 422.572 181.964C422.1 132.764 380.032 93.2786 328.612 93.7722C277.191 94.2659 235.889 134.551 236.361 183.752C236.833 232.953 278.901 272.438 330.322 271.944Z" fill="#DEAD86"/>
<path d="M330.33 273C305.571 273.387 281.627 264.16 263.53 247.26C245.58 230.41 235.53 207.87 235.33 183.79C235.23 171.845 237.574 160.006 242.217 149C246.86 137.994 253.705 128.054 262.33 119.79C280.181 102.672 303.89 93.009 328.621 92.7711C353.352 92.5332 377.243 101.739 395.42 118.51C413.42 135.37 423.42 157.91 423.62 181.99C423.82 206.07 414.27 228.79 396.62 245.99C378.851 263.232 355.089 272.913 330.33 273ZM328.62 94.7897C304.386 94.8716 281.128 104.35 263.74 121.23C255.316 129.301 248.631 139.01 244.098 149.76C239.565 160.51 237.279 172.073 237.38 183.74C237.6 207.26 247.38 229.27 264.93 245.74C282.724 262.147 306.105 271.151 330.308 270.919C354.51 270.687 377.714 261.235 395.19 244.49C403.62 236.425 410.307 226.718 414.839 215.968C419.372 205.218 421.652 193.653 421.541 181.987C421.429 170.321 418.928 158.802 414.191 148.141C409.454 137.479 402.582 127.902 394 120C376.288 103.455 352.854 94.4191 328.62 94.7897Z" fill="#1D1D1B"/>
<path d="M330.322 271.943C374.906 271.515 410.718 236.803 410.311 194.412C409.905 152.02 373.432 118.002 328.848 118.43C284.264 118.858 248.452 153.57 248.859 195.962C249.266 238.353 285.738 272.371 330.322 271.943Z" fill="#FFFAF9"/>
<path d="M330.33 273C308.858 273.342 288.082 265.386 272.33 250.79C264.707 243.831 258.599 235.377 254.388 225.953C250.177 216.53 247.953 206.34 247.854 196.018C247.756 185.697 249.785 175.467 253.816 165.965C257.846 156.462 263.791 147.893 271.28 140.79C286.825 126.011 307.398 117.678 328.846 117.472C350.295 117.266 371.023 125.202 386.85 139.68C394.472 146.639 400.58 155.093 404.791 164.516C409.002 173.939 411.226 184.128 411.326 194.449C411.425 204.77 409.397 215 405.369 224.503C401.34 234.005 395.397 242.576 387.91 249.68C372.437 264.58 351.811 272.934 330.33 273ZM328.86 119.49C307.906 119.551 287.785 127.697 272.69 142.23C265.395 149.139 259.604 157.478 255.677 166.725C251.749 175.973 249.771 185.931 249.865 195.978C249.959 206.024 252.123 215.944 256.222 225.116C260.321 234.289 266.268 242.518 273.69 249.29C289.132 263.411 309.354 271.152 330.278 270.951C351.202 270.751 371.271 262.624 386.44 248.21C393.733 241.3 399.523 232.961 403.45 223.713C407.376 214.466 409.354 204.508 409.26 194.462C409.167 184.416 407.003 174.497 402.904 165.324C398.806 156.152 392.861 147.922 385.44 141.15C370.081 126.897 349.811 119.127 328.86 119.46V119.49Z" fill="#1D1D1B"/>
<path d="M319.45 116.72L307.28 120.32C307.28 120.32 297.39 129.22 286.03 147.81C282.49 153.6 278.83 159.4 274.03 164.23C269.752 168.446 265.977 173.144 262.78 178.23C258.825 183.452 256.715 189.839 256.78 196.39C256.857 204.434 260.126 212.118 265.869 217.751C271.611 223.385 279.356 226.507 287.4 226.43C295.444 226.353 303.128 223.084 308.762 217.341C314.395 211.599 317.517 203.854 317.44 195.81C317.44 195.25 317.44 194.7 317.37 194.15C317.574 189.958 317.353 185.757 316.71 181.61C313.35 158.46 305.27 151.91 308.61 136.71C311.95 121.51 319.45 116.72 319.45 116.72Z" fill="#704B55"/>
<path d="M286.393 221.812C300.536 221.676 311.893 210.23 311.759 196.247C311.624 182.264 300.05 171.038 285.907 171.174C271.763 171.31 260.407 182.756 260.541 196.739C260.675 210.722 272.249 221.948 286.393 221.812Z" fill="#CC9DA6"/>
<path d="M287.444 223.239C302.466 223.089 314.523 210.928 314.375 196.077C314.226 181.227 301.928 169.309 286.906 169.459C271.884 169.61 259.826 181.771 259.975 196.621C260.123 211.472 272.422 223.39 287.444 223.239Z" fill="#CC9DA6"/>
<path d="M287.312 219.603C300.582 219.476 311.244 209.29 311.124 196.854C311.005 184.417 300.15 174.438 286.879 174.565C273.608 174.693 262.947 184.878 263.067 197.315C263.186 209.752 274.041 219.731 287.312 219.603Z" fill="#D78E84"/>
<path d="M341.06 117.7L353.29 121.07C353.29 121.07 363.36 129.78 375.07 148.15C378.72 153.87 382.5 159.6 387.35 164.33C391.709 168.456 395.575 173.074 398.87 178.09C402.903 183.23 405.128 189.557 405.2 196.09C405.277 204.134 402.155 211.879 396.522 217.622C390.888 223.364 383.204 226.633 375.16 226.71C367.116 226.787 359.371 223.665 353.629 218.032C347.886 212.398 344.617 204.714 344.54 196.67C344.54 196.11 344.54 195.56 344.54 195.01C344.264 190.823 344.405 186.619 344.96 182.46C347.88 159.25 355.83 152.55 352.2 137.46C348.57 122.37 341.06 117.7 341.06 117.7Z" fill="#704B55"/>
<path d="M406.31 143.72C415.95 133.4 417.47 119.17 409.72 111.94C401.97 104.71 387.88 107.2 378.25 117.52C377.83 117.97 377.44 118.43 377.05 118.89" fill="#DEAA8A"/>
<path d="M406.32 144.74C406.116 144.752 405.913 144.701 405.739 144.594C405.565 144.487 405.427 144.329 405.346 144.142C405.264 143.954 405.242 143.746 405.282 143.546C405.322 143.345 405.423 143.162 405.57 143.02C414.8 133.13 416.35 119.52 409.02 112.68C405.52 109.41 400.49 108.16 394.87 109.15C388.746 110.397 383.183 113.577 379 118.22C378.64 118.61 378.27 119.03 377.83 119.55C377.743 119.654 377.637 119.739 377.518 119.801C377.398 119.863 377.268 119.901 377.134 119.912C376.999 119.924 376.864 119.909 376.736 119.868C376.607 119.828 376.488 119.762 376.385 119.675C376.282 119.589 376.197 119.483 376.135 119.363C376.073 119.244 376.035 119.113 376.023 118.979C376.012 118.845 376.027 118.71 376.067 118.581C376.108 118.453 376.173 118.334 376.26 118.23C376.72 117.69 377.12 117.23 377.5 116.82C381.982 111.854 387.942 108.46 394.5 107.14C400.78 106.02 406.42 107.46 410.41 111.14C418.56 118.74 417.05 133.65 407.05 144.36C406.962 144.472 406.852 144.564 406.726 144.629C406.6 144.695 406.462 144.733 406.32 144.74Z" fill="#1D1D1B"/>
<path d="M404.3 135.86C404.51 135.66 404.72 135.45 404.92 135.23C407.117 132.835 408.273 129.666 408.134 126.419C407.994 123.171 406.57 120.113 404.175 117.915C401.78 115.718 398.61 114.562 395.363 114.702C392.116 114.841 389.057 116.265 386.86 118.66C386.66 118.88 386.48 119.1 386.3 119.33L404.3 135.86Z" fill="#724B54"/>
<path d="M251.17 147.52C240.1 138.76 236.47 124.92 243.04 116.61C249.61 108.3 263.93 108.61 275.04 117.42C275.52 117.8 275.98 118.2 276.43 118.6" fill="#DEAA8A"/>
<path d="M251.18 148.55C250.945 148.551 250.716 148.474 250.53 148.33C239.04 139.23 235.32 124.72 242.24 115.97C249.16 107.22 264.14 107.52 275.63 116.62C276.07 116.97 276.53 117.35 277.07 117.83C277.274 118.009 277.399 118.262 277.417 118.533C277.435 118.804 277.344 119.071 277.165 119.275C276.986 119.479 276.733 119.604 276.462 119.622C276.191 119.64 275.924 119.549 275.72 119.37C275.2 118.92 274.72 118.55 274.36 118.23C263.75 109.83 250.07 109.39 243.85 117.23C237.63 125.07 241.2 138.3 251.85 146.7C251.958 146.782 252.048 146.885 252.115 147.003C252.182 147.121 252.224 147.251 252.239 147.386C252.254 147.521 252.241 147.657 252.202 147.786C252.163 147.916 252.097 148.036 252.01 148.14C251.915 148.27 251.79 148.376 251.645 148.447C251.501 148.518 251.341 148.554 251.18 148.55Z" fill="#1D1D1B"/>
<path d="M252 139.45C251.76 139.28 251.52 139.11 251.29 138.93C250.036 137.921 248.994 136.675 248.222 135.263C247.45 133.851 246.964 132.3 246.791 130.7C246.619 129.1 246.763 127.482 247.216 125.938C247.668 124.394 248.421 122.954 249.43 121.7C250.439 120.447 251.685 119.404 253.097 118.632C254.509 117.861 256.06 117.374 257.66 117.202C259.26 117.029 260.878 117.173 262.422 117.626C263.966 118.078 265.406 118.831 266.66 119.84C266.89 120.02 267.11 120.22 267.32 120.41L252 139.45Z" fill="#724B54"/>
<path d="M317 110C311.1 102.15 300.46 81.5897 305.16 75.0997C309.25 69.4397 319.16 74.5997 335.23 104.62" fill="#DEAA8A"/>
<path d="M317 111.05C316.839 111.054 316.679 111.018 316.535 110.947C316.39 110.875 316.265 110.77 316.17 110.64C310.66 103.32 299.05 81.8099 304.32 74.5299C304.854 73.7213 305.595 73.0698 306.465 72.6427C307.335 72.2155 308.303 72.0282 309.27 72.0999C315.87 72.5499 325.15 83.6399 336.12 104.17C336.187 104.288 336.23 104.418 336.245 104.553C336.261 104.688 336.248 104.825 336.209 104.955C336.17 105.085 336.104 105.206 336.017 105.31C335.929 105.414 335.821 105.499 335.7 105.56C335.582 105.627 335.452 105.67 335.317 105.685C335.181 105.701 335.045 105.688 334.915 105.649C334.785 105.61 334.664 105.544 334.56 105.457C334.456 105.369 334.371 105.261 334.31 105.14C328.66 94.5599 323.47 86.4999 318.87 81.1399C314.01 75.5399 310.87 74.2199 309.13 74.1399C308.513 74.094 307.895 74.2179 307.343 74.4982C306.791 74.7785 306.327 75.2044 306 75.7299C302 81.3099 311.49 100.99 317.82 109.41C317.944 109.558 318.022 109.739 318.045 109.93C318.068 110.121 318.035 110.316 317.951 110.489C317.866 110.662 317.733 110.807 317.568 110.907C317.403 111.006 317.213 111.056 317.02 111.05H317Z" fill="#1D1D1B"/>
<path d="M324.24 107.75C320.98 98.5002 315.24 75.3302 325.46 72.6002C328.09 71.9002 338.89 72.0502 343.75 105.26" fill="#DEAA8A"/>
<path d="M324.25 108.78C324.031 108.791 323.814 108.729 323.633 108.604C323.453 108.479 323.318 108.299 323.25 108.09C320.25 99.6199 316.25 83.2399 320.32 75.6199C320.796 74.6436 321.476 73.781 322.315 73.0908C323.153 72.4007 324.13 71.899 325.18 71.6199C326.299 71.3708 327.459 71.365 328.58 71.6031C329.702 71.8412 330.759 72.3176 331.68 72.9999C339.35 77.9999 343.03 93.2399 344.76 105.09C344.8 105.355 344.733 105.625 344.573 105.841C344.414 106.057 344.175 106.2 343.91 106.24C343.645 106.28 343.375 106.212 343.159 106.053C342.943 105.894 342.8 105.655 342.76 105.39C339.76 84.6699 334.47 77.2699 330.59 74.7099C329.91 74.1909 329.129 73.8211 328.297 73.6247C327.464 73.4282 326.6 73.4096 325.76 73.5699C324.981 73.7785 324.256 74.1551 323.638 74.6734C323.019 75.1917 322.522 75.839 322.18 76.5699C318.47 83.5699 322.55 99.7999 325.23 107.4C325.279 107.526 325.302 107.661 325.297 107.797C325.292 107.932 325.259 108.065 325.201 108.188C325.143 108.31 325.061 108.42 324.959 108.51C324.858 108.599 324.739 108.668 324.61 108.71C324.495 108.755 324.373 108.779 324.25 108.78Z" fill="#1D1D1B"/>
<path d="M335.55 107.64C334.75 100.54 332.91 78.5598 341.14 78.4798C349.78 78.3898 350.99 100.17 346.8 107.54" fill="#DEAA8A"/>
<path d="M346.81 108.56C346.629 108.561 346.45 108.516 346.29 108.43C346.171 108.366 346.065 108.278 345.981 108.171C345.897 108.065 345.835 107.943 345.799 107.812C345.764 107.681 345.755 107.544 345.774 107.409C345.793 107.275 345.839 107.146 345.91 107.03C348.77 102.03 349.04 88.6899 345.38 82.4699C344.21 80.4699 342.79 79.4699 341.15 79.4699C340.687 79.4737 340.23 79.5807 339.813 79.7831C339.396 79.9855 339.03 80.2782 338.74 80.6399C337.66 81.8599 334.3 87.4099 336.57 107.5C336.601 107.765 336.524 108.032 336.358 108.241C336.192 108.45 335.95 108.584 335.685 108.615C335.42 108.645 335.153 108.569 334.944 108.403C334.735 108.237 334.601 107.995 334.57 107.73C332.36 88.1099 335.3 81.4799 337.24 79.2799C337.721 78.7031 338.321 78.2379 339 77.9167C339.679 77.5955 340.419 77.426 341.17 77.4199C343.56 77.4199 345.64 78.7799 347.17 81.4199C351.28 88.4199 350.96 102.33 347.71 108.03C347.623 108.193 347.494 108.328 347.335 108.422C347.176 108.515 346.994 108.563 346.81 108.56Z" fill="#1D1D1B"/>
<path d="M330.33 272.89C308.734 273.228 287.841 265.222 272 250.54C264.32 243.534 258.167 235.02 253.924 225.53C249.681 216.04 247.439 205.778 247.339 195.383C247.238 184.988 249.281 174.684 253.34 165.114C257.399 155.544 263.387 146.913 270.93 139.76C286.573 124.89 307.274 116.507 328.856 116.301C350.438 116.095 371.295 124.082 387.22 138.65C394.897 145.657 401.049 154.17 405.29 163.66C409.531 173.149 411.771 183.411 411.871 193.804C411.97 204.198 409.927 214.5 405.868 224.069C401.809 233.638 395.822 242.268 388.28 249.42C372.71 264.42 351.95 272.828 330.33 272.89ZM328.86 119.37C308.019 119.43 288.006 127.537 273 142C265.757 148.862 260.007 157.144 256.108 166.328C252.209 175.512 250.245 185.401 250.338 195.378C250.432 205.355 252.582 215.205 256.653 224.314C260.724 233.423 266.629 241.595 274 248.32C289.348 262.349 309.443 270.038 330.236 269.84C351.028 269.641 370.973 261.569 386.05 247.25C393.296 240.388 399.049 232.106 402.95 222.921C406.851 213.736 408.815 203.846 408.722 193.867C408.628 183.888 406.477 174.036 402.404 164.926C398.331 155.816 392.424 147.644 385.05 140.92C369.791 126.774 349.665 119.055 328.86 119.37Z" fill="black"/>
<path d="M367.46 193.91C367.115 193.902 366.781 193.789 366.502 193.587C366.222 193.386 366.01 193.104 365.893 192.78C365.776 192.455 365.76 192.103 365.847 191.77C365.934 191.436 366.12 191.136 366.38 190.91C373.05 185.62 377.38 185.58 384.03 190.75C384.359 191.037 384.567 191.438 384.61 191.873C384.652 192.307 384.527 192.742 384.26 193.087C383.993 193.432 383.604 193.662 383.172 193.73C382.741 193.797 382.3 193.697 381.94 193.45C376.15 188.97 373.63 189.52 368.5 193.59C368.197 193.805 367.832 193.917 367.46 193.91Z" fill="#1D1D1B"/>
<path d="M375.219 223.97C390.241 223.825 402.303 211.67 402.16 196.82C402.017 181.969 389.725 170.048 374.703 170.192C359.682 170.336 347.62 182.492 347.763 197.342C347.905 212.192 360.198 224.114 375.219 223.97Z" fill="#CC9DA6"/>
<path d="M375.181 219.95C388.452 219.822 399.113 209.637 398.994 197.2C398.874 184.763 388.019 174.785 374.749 174.912C361.478 175.039 350.817 185.225 350.936 197.662C351.055 210.098 361.91 220.077 375.181 219.95Z" fill="#D78E84"/>
<path d="M329.68 193.94H332.98C333.594 193.932 334.199 194.086 334.734 194.387C335.269 194.688 335.715 195.125 336.028 195.653C336.34 196.182 336.508 196.783 336.513 197.397C336.519 198.011 336.363 198.616 336.06 199.15L334.43 202L332.81 204.87C332.508 205.404 332.071 205.85 331.542 206.162C331.013 206.474 330.411 206.642 329.797 206.648C329.183 206.654 328.578 206.499 328.044 206.197C327.509 205.895 327.062 205.458 326.75 204.93L325.08 202.09L323.4 199.24C323.086 198.71 322.917 198.106 322.912 197.491C322.907 196.875 323.064 196.268 323.369 195.733C323.674 195.198 324.114 194.753 324.647 194.443C325.179 194.133 325.784 193.97 326.4 193.97L329.68 193.94Z" fill="#010101"/>
<path d="M286.16 203.61C289.733 203.61 292.63 200.713 292.63 197.14C292.63 193.567 289.733 190.67 286.16 190.67C282.587 190.67 279.69 193.567 279.69 197.14C279.69 200.713 282.587 203.61 286.16 203.61Z" fill="#1D1D1B"/>
<path d="M288.563 203.145C290.503 202.373 291.761 200.956 291.372 199.981C290.984 199.006 289.097 198.842 287.158 199.614C285.218 200.387 283.96 201.803 284.349 202.778C284.737 203.753 286.624 203.917 288.563 203.145Z" fill="white"/>
<path d="M283.903 192.909C284.939 192.497 285.634 191.796 285.454 191.345C285.274 190.893 284.288 190.862 283.252 191.274C282.215 191.687 281.521 192.388 281.701 192.839C281.881 193.291 282.867 193.322 283.903 192.909Z" fill="white"/>
<path d="M376.46 203.54C380.033 203.54 382.93 200.643 382.93 197.07C382.93 193.496 380.033 190.6 376.46 190.6C372.887 190.6 369.99 193.496 369.99 197.07C369.99 200.643 372.887 203.54 376.46 203.54Z" fill="#1D1D1B"/>
<path d="M378.849 203.072C380.789 202.299 382.046 200.883 381.658 199.908C381.27 198.933 379.383 198.769 377.444 199.541C375.504 200.313 374.246 201.73 374.634 202.705C375.023 203.68 376.91 203.844 378.849 203.072Z" fill="white"/>
<path d="M374.208 192.832C375.245 192.42 375.939 191.719 375.759 191.267C375.58 190.816 374.594 190.784 373.557 191.197C372.521 191.61 371.826 192.31 372.006 192.762C372.186 193.213 373.172 193.245 374.208 192.832Z" fill="white"/>
<path d="M321.17 216.27C322.628 216.27 323.81 215.088 323.81 213.63C323.81 212.172 322.628 210.99 321.17 210.99C319.712 210.99 318.53 212.172 318.53 213.63C318.53 215.088 319.712 216.27 321.17 216.27Z" fill="#1D1D1B"/>
<path d="M563.22 219.4C563.22 219.4 569.72 213.09 568.33 198.08C566.94 183.07 559.02 180.08 559.02 180.08C559.02 180.08 547.21 187.83 548.52 204.48C549.83 221.13 563.22 219.4 563.22 219.4Z" fill="#512725"/>
<path d="M561.84 210.33C561.84 210.33 566.84 205.49 565.75 193.99C564.66 182.49 558.61 180.23 558.61 180.23C558.61 180.23 549.56 186.17 550.61 198.93C551.66 211.69 561.84 210.33 561.84 210.33Z" fill="#FB9A04"/>
<path d="M506.44 170C506.44 170 512.67 163.42 527.7 164.6C542.73 165.78 545.77 173.67 545.77 173.67C545.77 173.67 538.19 185.58 521.52 184.49C504.85 183.4 506.44 170 506.44 170Z" fill="#512725"/>
<path d="M515.54 171.3C515.54 171.3 520.31 166.25 531.82 167.15C543.33 168.05 545.68 174.1 545.68 174.1C545.68 174.1 539.86 183.23 527.09 182.4C514.32 181.57 515.54 171.3 515.54 171.3Z" fill="#FB9A04"/>
<g filter="url(#filter0_d_230_356)">
<path d="M550.857 200.752C562.92 188.689 567.599 173.809 561.308 167.518C555.016 161.227 540.137 165.906 528.074 177.969C516.01 190.032 511.331 204.912 517.623 211.203C523.914 217.494 538.793 212.815 550.857 200.752Z" fill="#F9FF00"/>
</g>
<path d="M508.87 151C508.87 151 518.87 141.53 541.51 144.52C564.15 147.51 568.17 159.72 568.17 159.72C568.17 159.72 555.71 177.16 530.55 174.17C505.39 171.18 508.87 151 508.87 151Z" fill="#791802"/>
<path d="M513.58 153.58C513.58 153.58 522.82 145.48 543.84 148.04C564.86 150.6 568.56 161.04 568.56 161.04C568.56 161.04 557 176 533.68 173.4C510.36 170.8 513.58 153.58 513.58 153.58Z" fill="#FB9A04"/>
<path d="M581.87 216.17C581.87 216.17 590.1 205.17 584.49 183C578.88 160.83 566.28 158.3 566.28 158.3C566.28 158.3 550.41 172.71 556.28 197.36C562.15 222.01 581.87 216.17 581.87 216.17Z" fill="#791802"/>
<path d="M578 209.93C578 209.93 584.91 200.12 580 180.22C575.09 160.32 564.46 158 564.46 158C564.46 158 551.13 170.82 556.27 192.94C561.41 215.06 578 209.93 578 209.93Z" fill="#FB9A04"/>
<path d="M624.15 328.26C624.15 328.26 614.03 311.69 628.77 291.94C639.15 278.03 662.47 277.64 662.47 277.64C662.47 277.64 667.29 295.81 659.78 310.26C652.27 324.71 624.15 328.26 624.15 328.26Z" fill="#C5D17B" stroke="#1D1D1B" stroke-width="3" stroke-miterlimit="10"/>
<path d="M662.47 277.64C662.47 277.64 640.7 298.8 635.78 310.39Z" fill="#C5D17B"/>
<path d="M662.47 277.64C662.47 277.64 640.7 298.8 635.78 310.39" stroke="#1D1D1B" stroke-width="3" stroke-miterlimit="10" stroke-linecap="round"/>
<path d="M674.72 313.68C674.72 313.68 662.65 311.77 659.2 296.68C656.77 286.02 666.11 274.68 666.11 274.68C666.11 274.68 676.79 279.79 680.65 289.29C684.51 298.79 674.72 313.68 674.72 313.68Z" fill="#C5D17B" stroke="#1D1D1B" stroke-width="3" stroke-miterlimit="10"/>
<path d="M666.11 274.65C666.11 274.65 667.36 293.72 670.91 300.82Z" fill="#C5D17B"/>
<path d="M666.11 274.65C666.11 274.65 667.36 293.72 670.91 300.82" stroke="#1D1D1B" stroke-width="3" stroke-miterlimit="10" stroke-linecap="round"/>
<path d="M807.71 174C807.71 174 808.61 193.39 786.18 203.61C770.38 210.81 749.76 199.93 749.76 199.93C749.76 199.93 754.27 181.68 767.76 172.63C781.25 163.58 807.71 174 807.71 174Z" fill="#C5D17B" stroke="#1D1D1B" stroke-width="3" stroke-miterlimit="10"/>
<path d="M749.76 199.88C749.76 199.88 779 191.8 788.92 184Z" fill="#C5D17B"/>
<path d="M749.76 199.88C749.76 199.88 779 191.8 788.92 184" stroke="#1D1D1B" stroke-width="3" stroke-miterlimit="10" stroke-linecap="round"/>
<path d="M756.36 162.39C756.36 162.39 766.02 169.88 761.76 184.8C758.76 195.31 745.12 200.75 745.12 200.75C745.12 200.75 738.23 191.14 739.41 180.95C740.59 170.76 756.36 162.39 756.36 162.39Z" fill="#C5D17B" stroke="#1D1D1B" stroke-width="3" stroke-miterlimit="10"/>
<path d="M745.12 200.75C745.12 200.75 753.2 183.43 753.51 175.5Z" fill="#C5D17B"/>
<path d="M745.12 200.75C745.12 200.75 753.2 183.43 753.51 175.5" stroke="#1D1D1B" stroke-width="3" stroke-miterlimit="10" stroke-linecap="round"/>
<path d="M1294 13.3403C1294 13.3403 1294.9 32.7303 1272.48 42.9503C1256.68 50.1503 1236.05 39.2703 1236.05 39.2703C1236.05 39.2703 1240.57 21.0303 1254.05 11.9703C1267.53 2.9103 1294 13.3403 1294 13.3403Z" fill="#C5D17B" stroke="#1D1D1B" stroke-width="3" stroke-miterlimit="10"/>
<path d="M1236 39.2704C1236 39.2704 1265.27 31.1904 1275.16 23.4004Z" fill="#C5D17B"/>
<path d="M1236 39.2704C1236 39.2704 1265.27 31.1904 1275.16 23.4004" stroke="#1D1D1B" stroke-width="3" stroke-miterlimit="10" stroke-linecap="round"/>
<path d="M1242.62 1.78027C1242.62 1.78027 1252.28 9.27027 1248.02 24.1903C1245.02 34.7003 1231.38 40.1903 1231.38 40.1903C1231.38 40.1903 1224.48 30.5803 1225.67 20.3903C1226.86 10.2003 1242.62 1.78027 1242.62 1.78027Z" fill="#C5D17B" stroke="#1D1D1B" stroke-width="3" stroke-miterlimit="10"/>
<path d="M1231.38 40.1396C1231.38 40.1396 1239.46 22.8196 1239.77 14.8896Z" fill="#C5D17B"/>
<path d="M1231.38 40.1396C1231.38 40.1396 1239.46 22.8196 1239.77 14.8896" stroke="#1D1D1B" stroke-width="3" stroke-miterlimit="10" stroke-linecap="round"/>
<path d="M1088.72 467.27C1088.72 467.27 1093.58 448.48 1073.72 433.88C1059.72 423.59 1037.31 430.02 1037.31 430.02C1037.31 430.02 1038 448.8 1049.39 460.43C1060.78 472.06 1088.72 467.27 1088.72 467.27Z" fill="#C5D17B" stroke="#1D1D1B" stroke-width="3" stroke-miterlimit="10"/>
<path d="M1037.31 430C1037.31 430 1064.31 443.9 1072.39 453.55Z" fill="#C5D17B"/>
<path d="M1037.31 430C1037.31 430 1064.31 443.9 1072.39 453.55" stroke="#1D1D1B" stroke-width="3" stroke-miterlimit="10" stroke-linecap="round"/>
<path d="M1036.1 468.06C1036.1 468.06 1047.1 462.71 1045.98 447.24C1045.19 436.33 1032.98 428.24 1032.98 428.24C1032.98 428.24 1024.26 436.24 1023.33 446.45C1022.4 456.66 1036.1 468.06 1036.1 468.06Z" fill="#C5D17B" stroke="#1D1D1B" stroke-width="3" stroke-miterlimit="10"/>
<path d="M1033 428.21C1033 428.21 1037.36 446.82 1036 454.64Z" fill="#C5D17B"/>
<path d="M1033 428.21C1033 428.21 1037.36 446.82 1036 454.64" stroke="#1D1D1B" stroke-width="3" stroke-miterlimit="10" stroke-linecap="round"/>
<path d="M1361.13 186.09C1367.6 168.75 1341.01 140.77 1344.97 187.8Z" fill="#DFAE89"/>
<path d="M1361.13 186.09C1367.6 168.75 1341.01 140.77 1344.97 187.8" stroke="black" stroke-width="2" stroke-miterlimit="10"/>
<path d="M1310 257.81C1285.84 269.56 1241.74 234.96 1310.26 234.23Z" fill="#DFAE89"/>
<path d="M1310 257.81C1285.84 269.56 1241.74 234.96 1310.26 234.23" stroke="black" stroke-width="2" stroke-miterlimit="10"/>
<path d="M1292.1 241.73C1292.1 241.73 1313.1 268.73 1336.89 271.15C1357.89 273.26 1365.84 270.07 1381.42 259.51C1397 248.95 1396.48 234.32 1394.94 228.1C1393.4 221.88 1385.18 203.83 1374.86 196.1C1364.54 188.37 1350.86 179 1347.44 177.1C1345.48 175.988 1343.3 175.329 1341.06 175.17C1341.06 175.17 1334.93 213.57 1292.1 241.73Z" fill="#DFAE89" stroke="black" stroke-width="2" stroke-miterlimit="10"/>
<path d="M1377.24 227.71C1377.24 227.71 1376.77 216.34 1387.8 217.83C1398.83 219.32 1401.57 218.83 1409.08 228.23C1416.59 237.63 1419.58 251.3 1419.58 251.3C1419.58 251.3 1422.06 270.23 1405.8 262.24C1389.54 254.25 1382.8 237.76 1382.8 237.76" fill="#DFAB8B"/>
<path d="M1377.24 227.71C1377.24 227.71 1376.77 216.34 1387.8 217.83C1398.83 219.32 1401.57 218.83 1409.08 228.23C1416.59 237.63 1419.58 251.3 1419.58 251.3C1419.58 251.3 1422.06 270.23 1405.8 262.24C1389.54 254.25 1382.8 237.76 1382.8 237.76" stroke="#1D1D1B" stroke-width="2" stroke-miterlimit="10" stroke-linecap="round"/>
<path d="M1314.24 262.09C1324.24 270.27 1382.6 287.68 1377.94 247.61C1373.28 207.54 1386.2 221.7 1395.06 216.28C1403.92 210.86 1398.06 200.75 1396.44 198.01C1394.82 195.27 1383.65 183.43 1362.95 199.78C1343.69 214.98 1335.49 244 1334.44 247.98" fill="#DFAE89"/>
<path d="M1314.24 262.09C1324.24 270.27 1382.6 287.68 1377.94 247.61C1373.28 207.54 1386.2 221.7 1395.06 216.28C1403.92 210.86 1398.06 200.75 1396.44 198.01C1394.82 195.27 1383.65 183.43 1362.95 199.78C1343.69 214.98 1335.49 244 1334.44 247.98" stroke="black" stroke-width="2" stroke-miterlimit="10"/>
<path d="M1332.95 221.167C1360.66 189.311 1358.42 141.992 1327.94 115.477C1297.46 88.9619 1250.28 93.2913 1222.57 125.147C1194.86 157.003 1197.1 204.322 1227.58 230.837C1258.07 257.352 1305.24 253.023 1332.95 221.167Z" fill="#DEAD86" stroke="#1D1D1B" stroke-width="3" stroke-miterlimit="10"/>
<path d="M1332.96 221.175C1356.98 193.557 1355.17 152.647 1328.9 129.8C1302.64 106.953 1261.87 110.821 1237.85 138.439C1213.82 166.057 1215.64 206.967 1241.9 229.814C1268.16 252.661 1308.93 248.793 1332.96 221.175Z" fill="#FFFAF9" stroke="#1D1D1B" stroke-miterlimit="10"/>
<path d="M1231.72 143.32L1227.31 152.76C1227.31 152.76 1227.39 163.68 1232.61 180.76C1234.24 186.08 1235.81 191.5 1236.18 197.05C1236.43 201.973 1237.26 206.849 1238.64 211.58C1239.7 216.851 1242.47 221.623 1246.53 225.15C1251.51 229.485 1258.01 231.664 1264.6 231.206C1271.19 230.748 1277.33 227.692 1281.66 222.71C1285.99 217.728 1288.17 211.228 1287.72 204.64C1287.26 198.052 1284.2 191.915 1279.22 187.58C1278.88 187.28 1278.55 186.99 1278.22 186.71C1275.75 184.303 1273.05 182.149 1270.16 180.28C1254.1 169.73 1245.68 171.13 1238.16 160.8C1230.64 150.47 1231.72 143.32 1231.72 143.32Z" fill="#704B55"/>
<path d="M1278.24 220.839C1285.86 212.076 1285.02 198.863 1276.35 191.328C1267.69 183.792 1254.49 184.786 1246.86 193.549C1239.24 202.312 1240.08 215.525 1248.75 223.061C1257.41 230.597 1270.61 229.602 1278.24 220.839Z" fill="#CC9DA6"/>
<path d="M1279.71 221.107C1287.8 211.803 1286.91 197.772 1277.71 189.768C1268.51 181.765 1254.49 182.82 1246.39 192.124C1238.3 201.429 1239.19 215.46 1248.39 223.463C1257.6 231.467 1271.62 230.412 1279.71 221.107Z" fill="#CC9DA6"/>
<path d="M1277.37 219.079C1284.52 210.858 1284.08 198.76 1276.37 192.058C1268.67 185.356 1256.62 186.587 1249.47 194.808C1242.32 203.03 1242.77 215.128 1250.47 221.83C1258.18 228.532 1270.22 227.301 1277.37 219.079Z" fill="#D78E84"/>
<path d="M1255.19 209.1C1255.53 203.04 1257.07 200.7 1263.57 199.47" stroke="#1D1D1B" stroke-width="2" stroke-miterlimit="10" stroke-linecap="round"/>
<path d="M1244.1 130.58L1252.84 124.9C1252.84 124.9 1263.67 123.47 1281.33 126.28C1286.83 127.15 1292.41 127.95 1297.96 127.55C1302.87 127.12 1307.81 127.264 1312.69 127.98C1318.06 128.292 1323.17 130.382 1327.22 133.92C1332.2 138.255 1335.26 144.391 1335.72 150.98C1336.17 157.568 1334 164.068 1329.66 169.05C1325.33 174.032 1319.19 177.088 1312.6 177.546C1306.01 178.003 1299.51 175.825 1294.53 171.49C1294.19 171.19 1293.86 170.89 1293.53 170.57C1290.81 168.459 1288.3 166.081 1286.05 163.47C1273.38 149.04 1273.6 140.47 1262.33 134.47C1251.06 128.47 1244.1 130.58 1244.1 130.58Z" fill="#704B55"/>
<path d="M1296.27 181.49C1295.94 187.04 1294.52 189.19 1288.57 190.35" stroke="#1D1D1B" stroke-width="2" stroke-miterlimit="10" stroke-linecap="round"/>
<path d="M1295.63 104.67C1294.54 93.1296 1286.63 84.4396 1277.97 85.2596C1269.31 86.0796 1263.16 96.0996 1264.25 107.64C1264.25 108.14 1264.36 108.64 1264.44 109.12" fill="#DEAA8A"/>
<path d="M1295.63 104.67C1294.54 93.1296 1286.63 84.4396 1277.97 85.2596C1269.31 86.0796 1263.16 96.0996 1264.25 107.64C1264.25 108.14 1264.36 108.64 1264.44 109.12" stroke="#1D1D1B" stroke-width="2" stroke-linecap="round" stroke-linejoin="round"/>
<path d="M1289.7 101.63C1289.7 101.39 1289.7 101.15 1289.7 100.91C1289.61 99.5596 1289.25 98.2412 1288.64 97.0333C1288.03 95.8254 1287.19 94.7527 1286.15 93.8796C1285.12 93.0064 1283.92 92.3507 1282.63 91.9516C1281.34 91.5525 1279.98 91.4182 1278.63 91.5569C1277.28 91.6955 1275.98 92.1041 1274.8 92.7583C1273.61 93.4125 1272.57 94.2989 1271.74 95.3644C1270.9 96.4298 1270.29 97.6525 1269.94 98.9593C1269.59 100.266 1269.51 101.63 1269.7 102.97C1269.7 103.21 1269.76 103.45 1269.8 103.68L1289.7 101.63Z" fill="#724B54"/>
<path d="M1213.44 202C1202.03 204 1191.55 198.72 1190.03 190.15C1188.51 181.58 1196.53 172.99 1207.94 170.97C1208.43 170.88 1208.94 170.81 1209.42 170.75" fill="#DEAA8A"/>
<path d="M1213.44 202C1202.03 204 1191.55 198.72 1190.03 190.15C1188.51 181.58 1196.53 172.99 1207.94 170.97C1208.43 170.88 1208.94 170.81 1209.42 170.75" stroke="#1D1D1B" stroke-width="2" stroke-linecap="round" stroke-linejoin="round"/>
<path d="M1208.93 197.14C1208.7 197.2 1208.47 197.25 1208.23 197.29C1205.6 197.736 1202.9 197.118 1200.72 195.573C1198.55 194.027 1197.08 191.681 1196.63 189.05C1196.18 186.419 1196.8 183.719 1198.35 181.544C1199.89 179.368 1202.24 177.896 1204.87 177.45C1205.11 177.41 1205.35 177.38 1205.59 177.36L1208.93 197.14Z" fill="#724B54"/>
<path d="M1226.29 141.17C1218.29 140.52 1199.83 135.85 1198.4 129.43C1197.15 123.84 1205.74 120.54 1232.92 127.04" fill="#DEAA8A"/>
<path d="M1226.29 141.17C1218.29 140.52 1199.83 135.85 1198.4 129.43C1197.15 123.84 1205.74 120.54 1232.92 127.04" stroke="#1D1D1B" stroke-width="2" stroke-linecap="round" stroke-linejoin="bevel"/>
<path d="M1228.82 135.5C1221.36 132.5 1203.98 123.38 1207.9 115.59C1208.9 113.59 1214.9 107.04 1237.9 122.15" fill="#DEAA8A"/>
<path d="M1228.82 135.5C1221.36 132.5 1203.98 123.38 1207.9 115.59C1208.9 113.59 1214.9 107.04 1237.9 122.15" stroke="#1D1D1B" stroke-width="2" stroke-linecap="round" stroke-linejoin="bevel"/>
<path d="M1234.92 128.49C1230.12 125.11 1215.62 114.26 1220.05 109.16C1224.7 103.8 1238.74 114.93 1240.98 121.52" fill="#DEAA8A"/>
<path d="M1234.92 128.49C1230.12 125.11 1215.62 114.26 1220.05 109.16C1224.7 103.8 1238.74 114.93 1240.98 121.52" stroke="#1D1D1B" stroke-width="2" stroke-linecap="round" stroke-linejoin="bevel"/>
<path d="M1332.59 220.855C1356.62 193.237 1354.8 152.327 1328.54 129.48C1302.27 106.633 1261.51 110.501 1237.48 138.119C1213.46 165.737 1215.27 206.647 1241.54 229.494C1267.8 252.341 1308.57 248.473 1332.59 220.855Z" stroke="black" stroke-width="2" stroke-miterlimit="10"/>
<path d="M1304.23 155C1304.57 148.95 1306.11 146.61 1312.61 145.38" stroke="#1D1D1B" stroke-width="10" stroke-miterlimit="10" stroke-linecap="round"/>
<path d="M1327.94 167.46C1336.04 158.155 1335.14 144.124 1325.94 136.121C1316.74 128.117 1302.72 129.172 1294.62 138.477C1286.53 147.781 1287.43 161.812 1296.63 169.816C1305.83 177.819 1319.85 176.765 1327.94 167.46Z" fill="#CC9DA6"/>
<path d="M1325.46 165.282C1332.61 157.061 1332.17 144.963 1324.46 138.261C1316.76 131.559 1304.71 132.79 1297.56 141.011C1290.41 149.233 1290.86 161.331 1298.56 168.033C1306.27 174.735 1318.31 173.504 1325.46 165.282Z" fill="#D78E84"/>
<path d="M1312.49 144.72C1306.55 145.89 1304.49 147.72 1304.12 154.35" stroke="#1D1D1B" stroke-width="2" stroke-miterlimit="10" stroke-linecap="round"/>
<path d="M1281.36 174.79L1282.94 172.59C1283.23 172.168 1283.63 171.833 1284.1 171.618C1284.56 171.403 1285.08 171.317 1285.59 171.369C1286.1 171.421 1286.59 171.609 1287 171.914C1287.42 172.218 1287.74 172.628 1287.94 173.1L1289.05 175.58L1290.16 178.05C1290.36 178.51 1290.43 179.012 1290.37 179.508C1290.32 180.005 1290.13 180.478 1289.84 180.881C1289.54 181.285 1289.15 181.605 1288.69 181.81C1288.24 182.015 1287.74 182.098 1287.24 182.05L1284.55 181.77L1281.85 181.49C1281.35 181.434 1280.88 181.248 1280.47 180.951C1280.07 180.653 1279.75 180.255 1279.54 179.795C1279.34 179.336 1279.26 178.831 1279.32 178.332C1279.37 177.833 1279.55 177.356 1279.85 176.95L1281.36 174.79Z" fill="#010101"/>
</g>
</g>
<defs>
<filter id="filter0_d_230_356" x="465.826" y="119.721" width="147.279" height="147.279" filterUnits="userSpaceOnUse" color-interpolation-filters="sRGB">
<feFlood flood-opacity="0" result="BackgroundImageFix"/>
<feColorMatrix in="SourceAlpha" type="matrix" values="0 0 0 0 0 0 0 0 0 0 0 0 0 0 0 0 0 0 127 0" result="hardAlpha"/>
<feOffset dy="4"/>
<feGaussianBlur stdDeviation="24.5"/>
<feComposite in2="hardAlpha" operator="out"/>
<feColorMatrix type="matrix" values="0 0 0 0 0.98 0 0 0 0 1 0 0 0 0 0 0 0 0 1 0"/>
<feBlend mode="normal" in2="BackgroundImageFix" result="effect1_dropShadow_230_356"/>
<feBlend mode="normal" in="SourceGraphic" in2="effect1_dropShadow_230_356" result="shape"/>
</filter>
<clipPath id="clip0_230_356">
<rect width="1600" height="470" fill="white"/>
</clipPath>
<clipPath id="clip1_230_356">
<rect width="2330.78" height="469.84" fill="white" transform="translate(-72)"/>
</clipPath>
</defs>
</svg>
